^C:\USERS\TAMLI\SOURCE\REPOS\PSEXEC\PSEXEC\PROCESS.CPP|C:\USERS\TAMLI\SOURCE\REPOS\PSEXEC\PSEXEC\SOCKET.CPP|C:\USERS\TAMLI\SOURCE\REPOS\PSEXEC\PSEXEC\SOURCE.CPP
C:\USERS\TAMLI\SOURCE\REPOS\PSEXEC\PSEXEC\X64\DEBUG\VC142.PDB
C:\USERS\TAMLI\SOURCE\REPOS\PSEXEC\PSEXEC\X64\DEBUG\VC142.IDB
C:\USERS\TAMLI\SOURCE\REPOS\PSEXEC\PSEXEC\X64\DEBUG\SOURCE.OBJ
C:\USERS\TAMLI\SOURCE\REPOS\PSEXEC\PSEXEC\X64\DEBUG\PROCESS.OBJ
^C:\USERS\TAMLI\SOURCE\REPOS\PSEXEC\PSEXEC\PROCESS.CPP|C:\USERS\TAMLI\SOURCE\REPOS\PSEXEC\PSEXEC\SOURCE.CPP
C:\USERS\TAMLI\SOURCE\REPOS\PSEXEC\PSEXEC\X64\DEBUG\VC142.PDB
C:\USERS\TAMLI\SOURCE\REPOS\PSEXEC\PSEXEC\X64\DEBUG\VC142.IDB
C:\USERS\TAMLI\SOURCE\REPOS\PSEXEC\PSEXEC\X64\DEBUG\PROCESS.OBJ
C:\USERS\TAMLI\SOURCE\REPOS\PSEXEC\PSEXEC\X64\DEBUG\SOURCE.OBJ
^C:\USERS\TAMLI\SOURCE\REPOS\PSEXEC\PSEXEC\SOCKET.CPP|C:\USERS\TAMLI\SOURCE\REPOS\PSEXEC\PSEXEC\SOURCE.CPP
C:\USERS\TAMLI\SOURCE\REPOS\PSEXEC\PSEXEC\X64\DEBUG\VC142.PDB
C:\USERS\TAMLI\SOURCE\REPOS\PSEXEC\PSEXEC\X64\DEBUG\VC142.IDB
C:\USERS\TAMLI\SOURCE\REPOS\PSEXEC\PSEXEC\X64\DEBUG\SOURCE.OBJ
C:\USERS\TAMLI\SOURCE\REPOS\PSEXEC\PSEXEC\X64\DEBUG\SOCKET.OBJ
^C:\USERS\TAMLI\SOURCE\REPOS\PSEXEC\PSEXEC\PROCESS.CPP
C:\USERS\TAMLI\SOURCE\REPOS\PSEXEC\PSEXEC\X64\DEBUG\VC142.PDB
C:\USERS\TAMLI\SOURCE\REPOS\PSEXEC\PSEXEC\X64\DEBUG\VC142.IDB
C:\USERS\TAMLI\SOURCE\REPOS\PSEXEC\PSEXEC\X64\DEBUG\PROCESS.OBJ
^C:\USERS\TAMLI\SOURCE\REPOS\PSEXEC\PSEXEC\SOURCE.CPP
C:\USERS\TAMLI\SOURCE\REPOS\PSEXEC\PSEXEC\X64\DEBUG\VC142.PDB
C:\USERS\TAMLI\SOURCE\REPOS\PSEXEC\PSEXEC\X64\DEBUG\VC142.IDB
C:\USERS\TAMLI\SOURCE\REPOS\PSEXEC\PSEXEC\X64\DEBUG\SOURCE.OBJ
^C:\USERS\TAMLI\SOURCE\REPOS\PSEXEC\PSEXEC\SOCKET.CPP
C:\USERS\TAMLI\SOURCE\REPOS\PSEXEC\PSEXEC\X64\DEBUG\VC142.PDB
C:\USERS\TAMLI\SOURCE\REPOS\PSEXEC\PSEXEC\X64\DEBUG\VC142.IDB
C:\USERS\TAMLI\SOURCE\REPOS\PSEXEC\PSEXEC\X64\DEBUG\SOCKET.OBJ
